<svg width="77" height="78" viewBox="0 0 77 78" fill="none" xmlns="http://www.w3.org/2000/svg">
<path d="M57.0312 46.9375C56.7396 46.9375 56.4479 46.9271 56.1562 46.9062C55.8854 46.8854 55.6042 46.875 55.3125 46.875C54.5208 46.875 53.5938 46.9167 52.5312 47C51.4688 47.0833 50.3229 47.1979 49.0938 47.3438C49.5729 49.0312 49.8125 50.7083 49.8125 52.375C49.8125 54.2292 49.5 55.9688 48.875 57.5938C48.25 59.2188 47.375 60.6354 46.25 61.8438C45.125 63.0729 43.7708 64.0417 42.1875 64.75C40.625 65.4583 38.8958 65.8125 37 65.8125C35.1042 65.8125 33.3854 65.5208 31.8438 64.9375C30.3229 64.3542 28.9688 63.5521 27.7812 62.5312C26.5938 61.5104 25.5729 60.3125 24.7188 58.9375C23.8646 57.5625 23.1667 56.0938 22.625 54.5312C22.0833 52.9688 21.6771 51.3438 21.4062 49.6562C21.1562 47.9688 21.0312 46.3021 21.0312 44.6562C21.0312 42.3854 21.2708 40 21.75 37.5C22.25 35 22.9688 32.5417 23.9062 30.125C24.8438 27.6875 26 25.375 27.375 23.1875C28.75 20.9792 30.3229 19.0417 32.0938 17.375C33.8854 15.6875 35.8646 14.3542 38.0312 13.375C40.2188 12.375 42.5833 11.875 45.125 11.875C46.5417 11.875 47.8646 12.0417 49.0938 12.375C50.3229 12.7083 51.3958 13.2292 52.3125 13.9375C53.2292 14.625 53.9479 15.5104 54.4688 16.5938C54.9896 17.6771 55.25 18.9792 55.25 20.5C55.25 21.6458 55.0521 22.75 54.6562 23.8125C54.2812 24.8542 53.75 25.8333 53.0625 26.75C52.3958 27.6458 51.6042 28.4583 50.6875 29.1875C49.7917 29.9167 48.8229 30.5417 47.7812 31.0625C46.7604 31.5625 45.6979 31.9479 44.5938 32.2188C43.5104 32.4896 42.4375 32.6146 41.375 32.5938H40.9062V31.9688C42.2604 31.6979 43.5417 31.2083 44.75 30.5C45.9792 29.7708 47.0417 28.8958 47.9375 27.875C48.8542 26.8333 49.5729 25.6667 50.0938 24.375C50.6354 23.0833 50.9062 21.7292 50.9062 20.3125C50.9062 18.2083 50.3646 16.5312 49.2812 15.2812C48.2188 14.0312 46.6042 13.4062 44.4375 13.4062C42.1875 13.4062 40.1667 13.8854 38.375 14.8438C36.5833 15.8021 34.9896 17.0729 33.5938 18.6562C32.2188 20.2396 31.0312 22.0625 30.0312 24.125C29.0312 26.1875 28.2083 28.3229 27.5625 30.5312C26.9375 32.7396 26.4688 34.9479 26.1562 37.1562C25.8646 39.3438 25.7188 41.3646 25.7188 43.2188C25.7188 44.6354 25.8125 46.1042 26 47.625C26.1875 49.125 26.4792 50.5938 26.875 52.0312C27.2917 53.4688 27.8333 54.8229 28.5 56.0938C29.1667 57.3854 29.9792 58.5104 30.9375 59.4688C31.9167 60.4479 33.0417 61.2188 34.3125 61.7812C35.6042 62.3438 37.0833 62.625 38.75 62.625C40.0208 62.625 41.2292 62.3958 42.375 61.9375C43.5208 61.5 44.5208 60.875 45.375 60.0625C46.25 59.2708 46.9375 58.3229 47.4375 57.2188C47.9583 56.1146 48.2188 54.9062 48.2188 53.5938C48.2188 52.5312 48.0417 51.5 47.6875 50.5C47.3333 49.5 46.8438 48.5833 46.2188 47.75C45.1146 47.9167 44.0208 48.1042 42.9375 48.3125C41.8542 48.5208 40.8125 48.75 39.8125 49C38.8333 49.2292 37.9167 49.4792 37.0625 49.75C36.2292 50 35.5104 50.2604 34.9062 50.5312C34.7188 50.6562 34.5208 50.7188 34.3125 50.7188C34.0208 50.7188 33.8333 50.5938 33.75 50.3438C33.6667 50.0938 33.625 49.8542 33.625 49.625C33.625 49.25 33.6875 48.8333 33.8125 48.375C33.9583 47.8958 34.1562 47.4479 34.4062 47.0312C34.6562 46.5938 34.9479 46.2083 35.2812 45.875C35.6146 45.5417 35.9792 45.3229 36.375 45.2188C36.9375 45.0521 37.5208 44.9271 38.125 44.8438C38.75 44.7604 39.375 44.7083 40 44.6875C40.625 44.6458 41.25 44.625 41.875 44.625C42.5 44.625 43.0938 44.625 43.6562 44.625C44.5312 44.625 45.6042 44.6562 46.875 44.7188C48.1458 44.7604 49.4479 44.8542 50.7812 45C52.1146 45.125 53.375 45.3125 54.5625 45.5625C55.75 45.7917 56.6875 46.1042 57.375 46.5L57.0312 46.9375Z" fill="#D5D5D5"/>
<path d="M76.5 39C76.5 60.2691 59.4808 77.5 38.5 77.5C17.5192 77.5 0.5 60.2691 0.5 39C0.5 17.7309 17.5192 0.5 38.5 0.5C59.4808 0.5 76.5 17.7309 76.5 39Z" stroke="white"/>
</svg>
